{
  "location": "101_cityplace_melbourne",
  "name": "City Place Tenant Portal",
  "tenant": "xperior",

  "contentful": {
    "include": 10,
    "contentType": "tp2Configuration",
    "space": "3un2evpt10kl",
    "accessToken": "da85383e2ec6d098039d998d2f9c36f8879d5d35f233c2a58371913c2752328a",
    "fieldsName": "101_cityplace_melbourne"
  },

  "header": {
    "cms": [{
      "type": "messages",
      "message_types": "local,localnews",
      "published": true,
      "featured" : true,
      "per_page": 100,
      "sort_by": "date",
      "sort_order": "desc"
    },
    {
      "type": "messages",
      "message_types": "local,localnews",
      "published": true,
      "per_page": 100,
      "sort_by": "date",
      "sort_order": "desc"
    },    
    {
      "type": "messages",
      "message_types": "portallive,live,portalwork,work,portalplay,play",
      "per_page": 100,
      "sort_by": "date",
      "sort_order": "desc"
    }],
    "maxItems": 3
  },

  "routes": {
    "community": {
      "route": "community",
      "title": "Community",
      "routes": [{
          "route": "all",
          "title": "All",
          "cms": [{
              "type": "messages",
              "message_types": "local,localnews",
              "published": true,
              "featured" : true,
              "per_page": 100,
              "sort_by": "date",
              "sort_order": "desc"
            },
            {
              "type": "messages",
              "message_types": "local,localnews",
              "published": true,
              "per_page": 100,
              "sort_by": "date",
              "sort_order": "desc"
            },
            {
              "type": "messages",
              "message_types": "portallive,live,portalwork,work,portalplay,play",
              "per_page": 20,
              "sort_by": "date",
              "sort_order": "desc"
            }
          ],
          "maxItems": 7,
          "disableInNavigation": true
        },
        {
          "route": "local",
          "title": "Local",
          "cms": [{
            "type": "messages",
            "message_types": "local,localnews",
            "published": true,
            "featured" : true,
            "per_page": 100,
            "sort_by": "date",
            "sort_order": "desc"
          },
          {
            "type": "messages",
            "message_types": "local,localnews",
            "published": true,
            "per_page": 100,
            "sort_by": "date",
            "sort_order": "desc"
          }],
          "maxItems": 7
        },
        {
          "route": "live",
          "title": "Live",
          "cms": [{
            "type": "messages",
            "message_types": "portallive,live",
            "per_page": 40,
            "sort_by": "date",
            "sort_order": "desc"
          }],
          "maxItems": 7
        },
        {
          "route": "work",
          "title": "Work",
          "cms": [{
            "type": "messages",
            "message_types": "portalwork,work",
            "per_page": 40,
            "sort_by": "date",
            "sort_order": "desc"
          }],
          "maxItems": 7
        },
        {
          "route": "play",
          "title": "Play",
          "cms": [{
            "type": "messages",
            "message_types": "portalplay,play",
            "per_page": 40,
            "sort_by": "date",
            "sort_order": "desc"
          }],
          "maxItems": 7
        }
      ]
    },
    "directory": {
      "route": "directory",
      "cms": [{
        "type": "directory",
        "per_page": 100
      }],
      "maxItems": 10,
      "showOpeningHours": true
    },
    "offers": {
      "route": "offers",
      "title": "Offers",
      "routes": [{
        "route": "all",
        "title": "All",
        "cms": [{
            "type": "messages",
            "message_types": "competition,offer",
            "published": true,
            "per_page": 20,
            "sort_by": "messages.updated_at",
            "sort_order": "desc"
          }
        ],
        "maxItems": 20
        },
        {
          "route": "competition",
          "title": "Competition",
          "cms": [{
            "type": "messages",
            "message_types": "competition",
            "published": true,
            "per_page": 100,
            "sort_by": "messages.updated_at",
            "sort_order": "desc"
          }],
          "maxItems": 10
        },
        {
          "route": "offer",
          "title": "Offer",
          "cms": [{
            "type": "messages",
            "message_types": "offer",
            "published": true,
            "per_page": 100,
            "sort_by": "messages.updated_at",
            "sort_order": "desc"
          }],
          "maxItems": 10
        }
      ]
    },
    "building": {
      "route": "my-building",
      "title": "My Building",
      "cms": [{
        "type": "web_profile"
      }],
      "maxItems": 1
    },
    "services": {
      "route": "services",
      "title": "Services",
      "routes": [{
        "route": "bookings",
        "title": "Bookings",
        "cms": [{
            "type": "messages",
            "message_types": "booking",
            "published": true,
            "per_page": 100,
            "sort_by": "date",
            "sort_order": "desc"
        }],
        "maxItems": 10
      }]
    } 
  },


  "cms": {
    "id": "892",
    "key": "5e19dffbc7ebee149dc6826e8bdceb408aed9eb3fdef7915b62fc478"
  },

  "segmentKey": "CdNoPekKy3ZwEXAS3KrOGkUT0JJJLkNw",

  "registrationConfiguration": {
    "sign_up_message": "Sign Up",
    "sign_in_message": "Sign In",
    "blacklist_enabled": false,
    "whitelist_enabled": false,
    "blacklisted_email_domains": "(gmail.com|yahoo.com|hotmail.com)"
  }
}